%% Input file of Fracture properties with connectivities for 2D-EDFM Simulator using %% Convention:
%% A % marks the beginning of a comment.
%% Once started, comments last for the rest of their containing line.
%% A data block ends with "/".
%% Keywords are in capital letters.
%% The index counters follow C++ routine and start from "0". If you use Matlab, please add "1" to every index.

% Type of connectivities (either EDFM or pEDFM):
FRACTURE_MODEL_TYPE     EDFM

% The discretization approach of reservoir:
DISCRETIZATION     CartesianGrid

% The dimension of reservoir:
DIMENSION         100.000 x  100.000 x    1.000 [m^3]

% The grid resolution of reservoir:
RESERVOIR_GRID        136 x      136 x        1 [ - ]

RESERVOIR_ACTIVE_GRID      18496 [ - ]

% The ADM settings of reservoir (ADM Active (0 or 1), ADM Level, Coarsening Ratios in x,y,z):
RESERVOIR_ADM   1,3,[3,3,1]

% Number of fractures:
NUM_FRACS      2

% Number of total fractures grids:
NUM_TOTAL_FRACS_GRIDS     110

/


FRACTURE
%           fracID   Length      Width       Aperture     Porosity    Permeability   Gridding    ADM_Config [Activation(0,1),Level,Coarsening_ratio_along_length,Coarsening_ratio_along_width]      CornerPoints [PointA] , [PointB] , [PointC] , [PointD]
PROPERTIES  0        5.000e+01   1.000e+00   5.000e-03    1.000e+00   1.0000e-06     55x1        [1,2,3,1]                                                                                          [2.50000e+01;5.00000e+01;0.00000e+00] , [7.50000e+01;5.00000e+01;0.00000e+00] , [7.50000e+01;5.00000e+01;1.00000e+00] , [2.50000e+01;5.00000e+01;1.00000e+00]

% Coordinates of grid points arranged row-wise (through length) then column-wise (through columns)
GRID_COORDS_X 2.50000e+01 2.59091e+01 2.68182e+01 2.77273e+01 2.86364e+01 2.95455e+01 3.04545e+01 3.13636e+01 3.22727e+01 3.31818e+01 3.40909e+01 3.50000e+01 3.59091e+01 3.68182e+01 3.77273e+01 3.86364e+01 3.95455e+01 4.04545e+01 4.13636e+01 4.22727e+01 4.31818e+01 4.40909e+01 4.50000e+01 4.59091e+01 4.68182e+01 4.77273e+01 4.86364e+01 4.95455e+01 5.04545e+01 5.13636e+01 5.22727e+01 5.31818e+01 5.40909e+01 5.50000e+01 5.59091e+01 5.68182e+01 5.77273e+01 5.86364e+01 5.95455e+01 6.04545e+01 6.13636e+01 6.22727e+01 6.31818e+01 6.40909e+01 6.50000e+01 6.59091e+01 6.68182e+01 6.77273e+01 6.86364e+01 6.95455e+01 7.04545e+01 7.13636e+01 7.22727e+01 7.31818e+01 7.40909e+01 7.50000e+01 2.50000e+01 2.59091e+01 2.68182e+01 2.77273e+01 2.86364e+01 2.95455e+01 3.04545e+01 3.13636e+01 3.22727e+01 3.31818e+01 3.40909e+01 3.50000e+01 3.59091e+01 3.68182e+01 3.77273e+01 3.86364e+01 3.95455e+01 4.04545e+01 4.13636e+01 4.22727e+01 4.31818e+01 4.40909e+01 4.50000e+01 4.59091e+01 4.68182e+01 4.77273e+01 4.86364e+01 4.95455e+01 5.04545e+01 5.13636e+01 5.22727e+01 5.31818e+01 5.40909e+01 5.50000e+01 5.59091e+01 5.68182e+01 5.77273e+01 5.86364e+01 5.95455e+01 6.04545e+01 6.13636e+01 6.22727e+01 6.31818e+01 6.40909e+01 6.50000e+01 6.59091e+01 6.68182e+01 6.77273e+01 6.86364e+01 6.95455e+01 7.04545e+01 7.13636e+01 7.22727e+01 7.31818e+01 7.40909e+01 7.50000e+01
GRID_COORDS_Y 5.00000e+01 5.00000e+01 5.00000e+01 5.00000e+01 5.00000e+01 5.00000e+01 5.00000e+01 5.00000e+01 5.00000e+01 5.00000e+01 5.00000e+01 5.00000e+01 5.00000e+01 5.00000e+01 5.00000e+01 5.00000e+01 5.00000e+01 5.00000e+01 5.00000e+01 5.00000e+01 5.00000e+01 5.00000e+01 5.00000e+01 5.00000e+01 5.00000e+01 5.00000e+01 5.00000e+01 5.00000e+01 5.00000e+01 5.00000e+01 5.00000e+01 5.00000e+01 5.00000e+01 5.00000e+01 5.00000e+01 5.00000e+01 5.00000e+01 5.00000e+01 5.00000e+01 5.00000e+01 5.00000e+01 5.00000e+01 5.00000e+01 5.00000e+01 5.00000e+01 5.00000e+01 5.00000e+01 5.00000e+01 5.00000e+01 5.00000e+01 5.00000e+01 5.00000e+01 5.00000e+01 5.00000e+01 5.00000e+01 5.00000e+01 5.00000e+01 5.00000e+01 5.00000e+01 5.00000e+01 5.00000e+01 5.00000e+01 5.00000e+01 5.00000e+01 5.00000e+01 5.00000e+01 5.00000e+01 5.00000e+01 5.00000e+01 5.00000e+01 5.00000e+01 5.00000e+01 5.00000e+01 5.00000e+01 5.00000e+01 5.00000e+01 5.00000e+01 5.00000e+01 5.00000e+01 5.00000e+01 5.00000e+01 5.00000e+01 5.00000e+01 5.00000e+01 5.00000e+01 5.00000e+01 5.00000e+01 5.00000e+01 5.00000e+01 5.00000e+01 5.00000e+01 5.00000e+01 5.00000e+01 5.00000e+01 5.00000e+01 5.00000e+01 5.00000e+01 5.00000e+01 5.00000e+01 5.00000e+01 5.00000e+01 5.00000e+01 5.00000e+01 5.00000e+01 5.00000e+01 5.00000e+01 5.00000e+01 5.00000e+01 5.00000e+01 5.00000e+01 5.00000e+01 5.00000e+01
GRID_COORDS_Z 0.00000e+00 0.00000e+00 0.00000e+00 0.00000e+00 0.00000e+00 0.00000e+00 0.00000e+00 0.00000e+00 0.00000e+00 0.00000e+00 0.00000e+00 0.00000e+00 0.00000e+00 0.00000e+00 0.00000e+00 0.00000e+00 0.00000e+00 0.00000e+00 0.00000e+00 0.00000e+00 0.00000e+00 0.00000e+00 0.00000e+00 0.00000e+00 0.00000e+00 0.00000e+00 0.00000e+00 0.00000e+00 0.00000e+00 0.00000e+00 0.00000e+00 0.00000e+00 0.00000e+00 0.00000e+00 0.00000e+00 0.00000e+00 0.00000e+00 0.00000e+00 0.00000e+00 0.00000e+00 0.00000e+00 0.00000e+00 0.00000e+00 0.00000e+00 0.00000e+00 0.00000e+00 0.00000e+00 0.00000e+00 0.00000e+00 0.00000e+00 0.00000e+00 0.00000e+00 0.00000e+00 0.00000e+00 0.00000e+00 0.00000e+00 1.00000e+00 1.00000e+00 1.00000e+00 1.00000e+00 1.00000e+00 1.00000e+00 1.00000e+00 1.00000e+00 1.00000e+00 1.00000e+00 1.00000e+00 1.00000e+00 1.00000e+00 1.00000e+00 1.00000e+00 1.00000e+00 1.00000e+00 1.00000e+00 1.00000e+00 1.00000e+00 1.00000e+00 1.00000e+00 1.00000e+00 1.00000e+00 1.00000e+00 1.00000e+00 1.00000e+00 1.00000e+00 1.00000e+00 1.00000e+00 1.00000e+00 1.00000e+00 1.00000e+00 1.00000e+00 1.00000e+00 1.00000e+00 1.00000e+00 1.00000e+00 1.00000e+00 1.00000e+00 1.00000e+00 1.00000e+00 1.00000e+00 1.00000e+00 1.00000e+00 1.00000e+00 1.00000e+00 1.00000e+00 1.00000e+00 1.00000e+00 1.00000e+00 1.00000e+00 1.00000e+00 1.00000e+00 1.00000e+00 1.00000e+00

%                    fracCellID         #rock EDFM    #rock pEDFM    #frac EDFM    #frac pEDFM
FRACCELL                  0               6              0             0             0
%                    rockCellID           CI_rock_EDFM
ROCK_CONN_EDFM         9145               0.00000e+00
ROCK_CONN_EDFM         9146               2.00000e+00
ROCK_CONN_EDFM         9147               4.72727e-01
ROCK_CONN_EDFM         9281               0.00000e+00
ROCK_CONN_EDFM         9282               2.00000e+00
ROCK_CONN_EDFM         9283               4.72727e-01

%                    fracCellID         #rock EDFM    #rock pEDFM    #frac EDFM    #frac pEDFM
FRACCELL                  1               4              0             0             0
%                    rockCellID           CI_rock_EDFM
ROCK_CONN_EDFM         9147               1.52727e+00
ROCK_CONN_EDFM         9148               9.45455e-01
ROCK_CONN_EDFM         9283               1.52727e+00
ROCK_CONN_EDFM         9284               9.45455e-01

%                    fracCellID         #rock EDFM    #rock pEDFM    #frac EDFM    #frac pEDFM
FRACCELL                  2               4              0             0             0
%                    rockCellID           CI_rock_EDFM
ROCK_CONN_EDFM         9148               1.05455e+00
ROCK_CONN_EDFM         9149               1.41818e+00
ROCK_CONN_EDFM         9284               1.05455e+00
ROCK_CONN_EDFM         9285               1.41818e+00

%                    fracCellID         #rock EDFM    #rock pEDFM    #frac EDFM    #frac pEDFM
FRACCELL                  3               4              0             0             0
%                    rockCellID           CI_rock_EDFM
ROCK_CONN_EDFM         9149               5.81818e-01
ROCK_CONN_EDFM         9150               1.89091e+00
ROCK_CONN_EDFM         9285               5.81818e-01
ROCK_CONN_EDFM         9286               1.89091e+00

%                    fracCellID         #rock EDFM    #rock pEDFM    #frac EDFM    #frac pEDFM
FRACCELL                  4               6              0             0             0
%                    rockCellID           CI_rock_EDFM
ROCK_CONN_EDFM         9150               1.09091e-01
ROCK_CONN_EDFM         9151               2.76923e+00
ROCK_CONN_EDFM         9152               3.63636e-01
ROCK_CONN_EDFM         9286               1.09091e-01
ROCK_CONN_EDFM         9287               2.76923e+00
ROCK_CONN_EDFM         9288               3.63636e-01

%                    fracCellID         #rock EDFM    #rock pEDFM    #frac EDFM    #frac pEDFM
FRACCELL                  5               4              0             0             0
%                    rockCellID           CI_rock_EDFM
ROCK_CONN_EDFM         9152               1.63636e+00
ROCK_CONN_EDFM         9153               8.36364e-01
ROCK_CONN_EDFM         9288               1.63636e+00
ROCK_CONN_EDFM         9289               8.36364e-01

%                    fracCellID         #rock EDFM    #rock pEDFM    #frac EDFM    #frac pEDFM
FRACCELL                  6               4              0             0             0
%                    rockCellID           CI_rock_EDFM
ROCK_CONN_EDFM         9153               1.16364e+00
ROCK_CONN_EDFM         9154               1.30909e+00
ROCK_CONN_EDFM         9289               1.16364e+00
ROCK_CONN_EDFM         9290               1.30909e+00

%                    fracCellID         #rock EDFM    #rock pEDFM    #frac EDFM    #frac pEDFM
FRACCELL                  7               4              0             0             0
%                    rockCellID           CI_rock_EDFM
ROCK_CONN_EDFM         9154               6.90909e-01
ROCK_CONN_EDFM         9155               1.78182e+00
ROCK_CONN_EDFM         9290               6.90909e-01
ROCK_CONN_EDFM         9291               1.78182e+00

%                    fracCellID         #rock EDFM    #rock pEDFM    #frac EDFM    #frac pEDFM
FRACCELL                  8               6              0             0             0
%                    rockCellID           CI_rock_EDFM
ROCK_CONN_EDFM         9155               2.18182e-01
ROCK_CONN_EDFM         9156               2.53846e+00
ROCK_CONN_EDFM         9157               2.54545e-01
ROCK_CONN_EDFM         9291               2.18182e-01
ROCK_CONN_EDFM         9292               2.53846e+00
ROCK_CONN_EDFM         9293               2.54545e-01

%                    fracCellID         #rock EDFM    #rock pEDFM    #frac EDFM    #frac pEDFM
FRACCELL                  9               4              0             0             0
%                    rockCellID           CI_rock_EDFM
ROCK_CONN_EDFM         9157               1.74545e+00
ROCK_CONN_EDFM         9158               7.27273e-01
ROCK_CONN_EDFM         9293               1.74545e+00
ROCK_CONN_EDFM         9294               7.27273e-01

%                    fracCellID         #rock EDFM    #rock pEDFM    #frac EDFM    #frac pEDFM
FRACCELL                 10               4              0             0             0
%                    rockCellID           CI_rock_EDFM
ROCK_CONN_EDFM         9158               1.27273e+00
ROCK_CONN_EDFM         9159               1.20000e+00
ROCK_CONN_EDFM         9294               1.27273e+00
ROCK_CONN_EDFM         9295               1.20000e+00

%                    fracCellID         #rock EDFM    #rock pEDFM    #frac EDFM    #frac pEDFM
FRACCELL                 11               4              0             0             0
%                    rockCellID           CI_rock_EDFM
ROCK_CONN_EDFM         9159               8.00000e-01
ROCK_CONN_EDFM         9160               1.67273e+00
ROCK_CONN_EDFM         9295               8.00000e-01
ROCK_CONN_EDFM         9296               1.67273e+00

%                    fracCellID         #rock EDFM    #rock pEDFM    #frac EDFM    #frac pEDFM
FRACCELL                 12               6              0             0             0
%                    rockCellID           CI_rock_EDFM
ROCK_CONN_EDFM         9160               3.27273e-01
ROCK_CONN_EDFM         9161               3.07692e+00
ROCK_CONN_EDFM         9162               1.45455e-01
ROCK_CONN_EDFM         9296               3.27273e-01
ROCK_CONN_EDFM         9297               3.07692e+00
ROCK_CONN_EDFM         9298               1.45455e-01

%                    fracCellID         #rock EDFM    #rock pEDFM    #frac EDFM    #frac pEDFM
FRACCELL                 13               4              0             0             0
%                    rockCellID           CI_rock_EDFM
ROCK_CONN_EDFM         9162               1.85455e+00
ROCK_CONN_EDFM         9163               6.18182e-01
ROCK_CONN_EDFM         9298               1.85455e+00
ROCK_CONN_EDFM         9299               6.18182e-01

%                    fracCellID         #rock EDFM    #rock pEDFM    #frac EDFM    #frac pEDFM
FRACCELL                 14               4              0             0             0
%                    rockCellID           CI_rock_EDFM
ROCK_CONN_EDFM         9163               1.38182e+00
ROCK_CONN_EDFM         9164               1.09091e+00
ROCK_CONN_EDFM         9299               1.38182e+00
ROCK_CONN_EDFM         9300               1.09091e+00

%                    fracCellID         #rock EDFM    #rock pEDFM    #frac EDFM    #frac pEDFM
FRACCELL                 15               4              0             0             0
%                    rockCellID           CI_rock_EDFM
ROCK_CONN_EDFM         9164               9.09091e-01
ROCK_CONN_EDFM         9165               1.56364e+00
ROCK_CONN_EDFM         9300               9.09091e-01
ROCK_CONN_EDFM         9301               1.56364e+00

%                    fracCellID         #rock EDFM    #rock pEDFM    #frac EDFM    #frac pEDFM
FRACCELL                 16               6              0             0             0
%                    rockCellID           CI_rock_EDFM
ROCK_CONN_EDFM         9165               4.36364e-01
ROCK_CONN_EDFM         9166               3.00000e+00
ROCK_CONN_EDFM         9167               3.63636e-02
ROCK_CONN_EDFM         9301               4.36364e-01
ROCK_CONN_EDFM         9302               3.00000e+00
ROCK_CONN_EDFM         9303               3.63636e-02

%                    fracCellID         #rock EDFM    #rock pEDFM    #frac EDFM    #frac pEDFM
FRACCELL                 17               4              0             0             0
%                    rockCellID           CI_rock_EDFM
ROCK_CONN_EDFM         9167               1.96364e+00
ROCK_CONN_EDFM         9168               5.09091e-01
ROCK_CONN_EDFM         9303               1.96364e+00
ROCK_CONN_EDFM         9304               5.09091e-01

%                    fracCellID         #rock EDFM    #rock pEDFM    #frac EDFM    #frac pEDFM
FRACCELL                 18               4              0             0             0
%                    rockCellID           CI_rock_EDFM
ROCK_CONN_EDFM         9168               1.49091e+00
ROCK_CONN_EDFM         9169               9.81818e-01
ROCK_CONN_EDFM         9304               1.49091e+00
ROCK_CONN_EDFM         9305               9.81818e-01

%                    fracCellID         #rock EDFM    #rock pEDFM    #frac EDFM    #frac pEDFM
FRACCELL                 19               4              0             0             0
%                    rockCellID           CI_rock_EDFM
ROCK_CONN_EDFM         9169               1.01818e+00
ROCK_CONN_EDFM         9170               1.45455e+00
ROCK_CONN_EDFM         9305               1.01818e+00
ROCK_CONN_EDFM         9306               1.45455e+00

%                    fracCellID         #rock EDFM    #rock pEDFM    #frac EDFM    #frac pEDFM
FRACCELL                 20               4              0             0             0
%                    rockCellID           CI_rock_EDFM
ROCK_CONN_EDFM         9170               5.45455e-01
ROCK_CONN_EDFM         9171               1.92727e+00
ROCK_CONN_EDFM         9306               5.45455e-01
ROCK_CONN_EDFM         9307               1.92727e+00

%                    fracCellID         #rock EDFM    #rock pEDFM    #frac EDFM    #frac pEDFM
FRACCELL                 21               6              0             0             0
%                    rockCellID           CI_rock_EDFM
ROCK_CONN_EDFM         9171               7.27273e-02
ROCK_CONN_EDFM         9172               2.84615e+00
ROCK_CONN_EDFM         9173               4.00000e-01
ROCK_CONN_EDFM         9307               7.27273e-02
ROCK_CONN_EDFM         9308               2.84615e+00
ROCK_CONN_EDFM         9309               4.00000e-01

%                    fracCellID         #rock EDFM    #rock pEDFM    #frac EDFM    #frac pEDFM
FRACCELL                 22               4              0             0             0
%                    rockCellID           CI_rock_EDFM
ROCK_CONN_EDFM         9173               1.60000e+00
ROCK_CONN_EDFM         9174               8.72727e-01
ROCK_CONN_EDFM         9309               1.60000e+00
ROCK_CONN_EDFM         9310               8.72727e-01

%                    fracCellID         #rock EDFM    #rock pEDFM    #frac EDFM    #frac pEDFM
FRACCELL                 23               4              0             0             0
%                    rockCellID           CI_rock_EDFM
ROCK_CONN_EDFM         9174               1.12727e+00
ROCK_CONN_EDFM         9175               1.34545e+00
ROCK_CONN_EDFM         9310               1.12727e+00
ROCK_CONN_EDFM         9311               1.34545e+00

%                    fracCellID         #rock EDFM    #rock pEDFM    #frac EDFM    #frac pEDFM
FRACCELL                 24               4              0             0             0
%                    rockCellID           CI_rock_EDFM
ROCK_CONN_EDFM         9175               6.54545e-01
ROCK_CONN_EDFM         9176               1.81818e+00
ROCK_CONN_EDFM         9311               6.54545e-01
ROCK_CONN_EDFM         9312               1.81818e+00

%                    fracCellID         #rock EDFM    #rock pEDFM    #frac EDFM    #frac pEDFM
FRACCELL                 25               6              0             0             0
%                    rockCellID           CI_rock_EDFM
ROCK_CONN_EDFM         9176               1.81818e-01
ROCK_CONN_EDFM         9177               2.61538e+00
ROCK_CONN_EDFM         9178               2.90909e-01
ROCK_CONN_EDFM         9312               1.81818e-01
ROCK_CONN_EDFM         9313               2.61538e+00
ROCK_CONN_EDFM         9314               2.90909e-01

%                    fracCellID         #rock EDFM    #rock pEDFM    #frac EDFM    #frac pEDFM
FRACCELL                 26               4              0             0             0
%                    rockCellID           CI_rock_EDFM
ROCK_CONN_EDFM         9178               1.70909e+00
ROCK_CONN_EDFM         9179               7.63636e-01
ROCK_CONN_EDFM         9314               1.70909e+00
ROCK_CONN_EDFM         9315               7.63636e-01

%                    fracCellID         #rock EDFM    #rock pEDFM    #frac EDFM    #frac pEDFM
FRACCELL                 27               4              0             1             0
%                    rockCellID           CI_rock_EDFM
ROCK_CONN_EDFM         9179               1.23636e+00
ROCK_CONN_EDFM         9180               1.23636e+00
ROCK_CONN_EDFM         9315               1.23636e+00
ROCK_CONN_EDFM         9316               1.23636e+00
%                fracID and fracCellID    CI_frac_EDFM
FRAC_CONN_EDFM       1       27           7.70000e+00

%                    fracCellID         #rock EDFM    #rock pEDFM    #frac EDFM    #frac pEDFM
FRACCELL                 28               4              0             0             0
%                    rockCellID           CI_rock_EDFM
ROCK_CONN_EDFM         9180               7.63636e-01
ROCK_CONN_EDFM         9181               1.70909e+00
ROCK_CONN_EDFM         9316               7.63636e-01
ROCK_CONN_EDFM         9317               1.70909e+00

%                    fracCellID         #rock EDFM    #rock pEDFM    #frac EDFM    #frac pEDFM
FRACCELL                 29               6              0             0             0
%                    rockCellID           CI_rock_EDFM
ROCK_CONN_EDFM         9181               2.90909e-01
ROCK_CONN_EDFM         9182               2.84615e+00
ROCK_CONN_EDFM         9183               1.81818e-01
ROCK_CONN_EDFM         9317               2.90909e-01
ROCK_CONN_EDFM         9318               2.84615e+00
ROCK_CONN_EDFM         9319               1.81818e-01

%                    fracCellID         #rock EDFM    #rock pEDFM    #frac EDFM    #frac pEDFM
FRACCELL                 30               4              0             0             0
%                    rockCellID           CI_rock_EDFM
ROCK_CONN_EDFM         9183               1.81818e+00
ROCK_CONN_EDFM         9184               6.54545e-01
ROCK_CONN_EDFM         9319               1.81818e+00
ROCK_CONN_EDFM         9320               6.54545e-01

%                    fracCellID         #rock EDFM    #rock pEDFM    #frac EDFM    #frac pEDFM
FRACCELL                 31               4              0             0             0
%                    rockCellID           CI_rock_EDFM
ROCK_CONN_EDFM         9184               1.34545e+00
ROCK_CONN_EDFM         9185               1.12727e+00
ROCK_CONN_EDFM         9320               1.34545e+00
ROCK_CONN_EDFM         9321               1.12727e+00

%                    fracCellID         #rock EDFM    #rock pEDFM    #frac EDFM    #frac pEDFM
FRACCELL                 32               4              0             0             0
%                    rockCellID           CI_rock_EDFM
ROCK_CONN_EDFM         9185               8.72727e-01
ROCK_CONN_EDFM         9186               1.60000e+00
ROCK_CONN_EDFM         9321               8.72727e-01
ROCK_CONN_EDFM         9322               1.60000e+00

%                    fracCellID         #rock EDFM    #rock pEDFM    #frac EDFM    #frac pEDFM
FRACCELL                 33               6              0             0             0
%                    rockCellID           CI_rock_EDFM
ROCK_CONN_EDFM         9186               4.00000e-01
ROCK_CONN_EDFM         9187               3.00000e+00
ROCK_CONN_EDFM         9188               7.27273e-02
ROCK_CONN_EDFM         9322               4.00000e-01
ROCK_CONN_EDFM         9323               3.00000e+00
ROCK_CONN_EDFM         9324               7.27273e-02

%                    fracCellID         #rock EDFM    #rock pEDFM    #frac EDFM    #frac pEDFM
FRACCELL                 34               4              0             0             0
%                    rockCellID           CI_rock_EDFM
ROCK_CONN_EDFM         9188               1.92727e+00
ROCK_CONN_EDFM         9189               5.45455e-01
ROCK_CONN_EDFM         9324               1.92727e+00
ROCK_CONN_EDFM         9325               5.45455e-01

%                    fracCellID         #rock EDFM    #rock pEDFM    #frac EDFM    #frac pEDFM
FRACCELL                 35               4              0             0             0
%                    rockCellID           CI_rock_EDFM
ROCK_CONN_EDFM         9189               1.45455e+00
ROCK_CONN_EDFM         9190               1.01818e+00
ROCK_CONN_EDFM         9325               1.45455e+00
ROCK_CONN_EDFM         9326               1.01818e+00

%                    fracCellID         #rock EDFM    #rock pEDFM    #frac EDFM    #frac pEDFM
FRACCELL                 36               4              0             0             0
%                    rockCellID           CI_rock_EDFM
ROCK_CONN_EDFM         9190               9.81818e-01
ROCK_CONN_EDFM         9191               1.49091e+00
ROCK_CONN_EDFM         9326               9.81818e-01
ROCK_CONN_EDFM         9327               1.49091e+00

%                    fracCellID         #rock EDFM    #rock pEDFM    #frac EDFM    #frac pEDFM
FRACCELL                 37               4              0             0             0
%                    rockCellID           CI_rock_EDFM
ROCK_CONN_EDFM         9191               5.09091e-01
ROCK_CONN_EDFM         9192               1.96364e+00
ROCK_CONN_EDFM         9327               5.09091e-01
ROCK_CONN_EDFM         9328               1.96364e+00

%                    fracCellID         #rock EDFM    #rock pEDFM    #frac EDFM    #frac pEDFM
FRACCELL                 38               6              0             0             0
%                    rockCellID           CI_rock_EDFM
ROCK_CONN_EDFM         9192               3.63636e-02
ROCK_CONN_EDFM         9193               2.00000e+00
ROCK_CONN_EDFM         9194               4.36364e-01
ROCK_CONN_EDFM         9328               3.63636e-02
ROCK_CONN_EDFM         9329               2.00000e+00
ROCK_CONN_EDFM         9330               4.36364e-01

%                    fracCellID         #rock EDFM    #rock pEDFM    #frac EDFM    #frac pEDFM
FRACCELL                 39               4              0             0             0
%                    rockCellID           CI_rock_EDFM
ROCK_CONN_EDFM         9194               1.56364e+00
ROCK_CONN_EDFM         9195               9.09091e-01
ROCK_CONN_EDFM         9330               1.56364e+00
ROCK_CONN_EDFM         9331               9.09091e-01

%                    fracCellID         #rock EDFM    #rock pEDFM    #frac EDFM    #frac pEDFM
FRACCELL                 40               4              0             0             0
%                    rockCellID           CI_rock_EDFM
ROCK_CONN_EDFM         9195               1.09091e+00
ROCK_CONN_EDFM         9196               1.38182e+00
ROCK_CONN_EDFM         9331               1.09091e+00
ROCK_CONN_EDFM         9332               1.38182e+00

%                    fracCellID         #rock EDFM    #rock pEDFM    #frac EDFM    #frac pEDFM
FRACCELL                 41               4              0             0             0
%                    rockCellID           CI_rock_EDFM
ROCK_CONN_EDFM         9196               6.18182e-01
ROCK_CONN_EDFM         9197               1.85455e+00
ROCK_CONN_EDFM         9332               6.18182e-01
ROCK_CONN_EDFM         9333               1.85455e+00

%                    fracCellID         #rock EDFM    #rock pEDFM    #frac EDFM    #frac pEDFM
FRACCELL                 42               6              0             0             0
%                    rockCellID           CI_rock_EDFM
ROCK_CONN_EDFM         9197               1.45455e-01
ROCK_CONN_EDFM         9198               2.69231e+00
ROCK_CONN_EDFM         9199               3.27273e-01
ROCK_CONN_EDFM         9333               1.45455e-01
ROCK_CONN_EDFM         9334               2.69231e+00
ROCK_CONN_EDFM         9335               3.27273e-01

%                    fracCellID         #rock EDFM    #rock pEDFM    #frac EDFM    #frac pEDFM
FRACCELL                 43               4              0             0             0
%                    rockCellID           CI_rock_EDFM
ROCK_CONN_EDFM         9199               1.67273e+00
ROCK_CONN_EDFM         9200               8.00000e-01
ROCK_CONN_EDFM         9335               1.67273e+00
ROCK_CONN_EDFM         9336               8.00000e-01

%                    fracCellID         #rock EDFM    #rock pEDFM    #frac EDFM    #frac pEDFM
FRACCELL                 44               4              0             0             0
%                    rockCellID           CI_rock_EDFM
ROCK_CONN_EDFM         9200               1.20000e+00
ROCK_CONN_EDFM         9201               1.27273e+00
ROCK_CONN_EDFM         9336               1.20000e+00
ROCK_CONN_EDFM         9337               1.27273e+00

%                    fracCellID         #rock EDFM    #rock pEDFM    #frac EDFM    #frac pEDFM
FRACCELL                 45               4              0             0             0
%                    rockCellID           CI_rock_EDFM
ROCK_CONN_EDFM         9201               7.27273e-01
ROCK_CONN_EDFM         9202               1.74545e+00
ROCK_CONN_EDFM         9337               7.27273e-01
ROCK_CONN_EDFM         9338               1.74545e+00

%                    fracCellID         #rock EDFM    #rock pEDFM    #frac EDFM    #frac pEDFM
FRACCELL                 46               6              0             0             0
%                    rockCellID           CI_rock_EDFM
ROCK_CONN_EDFM         9202               2.54545e-01
ROCK_CONN_EDFM         9203               2.61538e+00
ROCK_CONN_EDFM         9204               2.18182e-01
ROCK_CONN_EDFM         9338               2.54545e-01
ROCK_CONN_EDFM         9339               2.61538e+00
ROCK_CONN_EDFM         9340               2.18182e-01

%                    fracCellID         #rock EDFM    #rock pEDFM    #frac EDFM    #frac pEDFM
FRACCELL                 47               4              0             0             0
%                    rockCellID           CI_rock_EDFM
ROCK_CONN_EDFM         9204               1.78182e+00
ROCK_CONN_EDFM         9205               6.90909e-01
ROCK_CONN_EDFM         9340               1.78182e+00
ROCK_CONN_EDFM         9341               6.90909e-01

%                    fracCellID         #rock EDFM    #rock pEDFM    #frac EDFM    #frac pEDFM
FRACCELL                 48               4              0             0             0
%                    rockCellID           CI_rock_EDFM
ROCK_CONN_EDFM         9205               1.30909e+00
ROCK_CONN_EDFM         9206               1.16364e+00
ROCK_CONN_EDFM         9341               1.30909e+00
ROCK_CONN_EDFM         9342               1.16364e+00

%                    fracCellID         #rock EDFM    #rock pEDFM    #frac EDFM    #frac pEDFM
FRACCELL                 49               4              0             0             0
%                    rockCellID           CI_rock_EDFM
ROCK_CONN_EDFM         9206               8.36364e-01
ROCK_CONN_EDFM         9207               1.63636e+00
ROCK_CONN_EDFM         9342               8.36364e-01
ROCK_CONN_EDFM         9343               1.63636e+00

%                    fracCellID         #rock EDFM    #rock pEDFM    #frac EDFM    #frac pEDFM
FRACCELL                 50               6              0             0             0
%                    rockCellID           CI_rock_EDFM
ROCK_CONN_EDFM         9207               3.63636e-01
ROCK_CONN_EDFM         9208               3.30769e+00
ROCK_CONN_EDFM         9209               1.09091e-01
ROCK_CONN_EDFM         9343               3.63636e-01
ROCK_CONN_EDFM         9344               3.30769e+00
ROCK_CONN_EDFM         9345               1.09091e-01

%                    fracCellID         #rock EDFM    #rock pEDFM    #frac EDFM    #frac pEDFM
FRACCELL                 51               4              0             0             0
%                    rockCellID           CI_rock_EDFM
ROCK_CONN_EDFM         9209               1.89091e+00
ROCK_CONN_EDFM         9210               5.81818e-01
ROCK_CONN_EDFM         9345               1.89091e+00
ROCK_CONN_EDFM         9346               5.81818e-01

%                    fracCellID         #rock EDFM    #rock pEDFM    #frac EDFM    #frac pEDFM
FRACCELL                 52               4              0             0             0
%                    rockCellID           CI_rock_EDFM
ROCK_CONN_EDFM         9210               1.41818e+00
ROCK_CONN_EDFM         9211               1.05455e+00
ROCK_CONN_EDFM         9346               1.41818e+00
ROCK_CONN_EDFM         9347               1.05455e+00

%                    fracCellID         #rock EDFM    #rock pEDFM    #frac EDFM    #frac pEDFM
FRACCELL                 53               4              0             0             0
%                    rockCellID           CI_rock_EDFM
ROCK_CONN_EDFM         9211               9.45455e-01
ROCK_CONN_EDFM         9212               1.52727e+00
ROCK_CONN_EDFM         9347               9.45455e-01
ROCK_CONN_EDFM         9348               1.52727e+00

%                    fracCellID         #rock EDFM    #rock pEDFM    #frac EDFM    #frac pEDFM
FRACCELL                 54               6              0             0             0
%                    rockCellID           CI_rock_EDFM
ROCK_CONN_EDFM         9212               4.72727e-01
ROCK_CONN_EDFM         9213               2.00000e+00
ROCK_CONN_EDFM         9214               0.00000e+00
ROCK_CONN_EDFM         9348               4.72727e-01
ROCK_CONN_EDFM         9349               2.00000e+00
ROCK_CONN_EDFM         9350               0.00000e+00

/


FRACTURE
%           fracID   Length      Width       Aperture     Porosity    Permeability   Gridding    ADM_Config [Activation(0,1),Level,Coarsening_ratio_along_length,Coarsening_ratio_along_width]      CornerPoints [PointA] , [PointB] , [PointC] , [PointD]
PROPERTIES  1        5.000e+01   1.000e+00   5.000e-03    1.000e+00   1.0000e-06     55x1        [1,2,3,1]                                                                                          [5.00000e+01;2.50000e+01;7.10543e-15] , [5.00000e+01;7.50000e+01;7.10543e-15] , [5.00000e+01;7.50000e+01;1.00000e+00] , [5.00000e+01;2.50000e+01;1.00000e+00]

% Coordinates of grid points arranged row-wise (through length) then column-wise (through columns)
GRID_COORDS_X 5.00000e+01 5.00000e+01 5.00000e+01 5.00000e+01 5.00000e+01 5.00000e+01 5.00000e+01 5.00000e+01 5.00000e+01 5.00000e+01 5.00000e+01 5.00000e+01 5.00000e+01 5.00000e+01 5.00000e+01 5.00000e+01 5.00000e+01 5.00000e+01 5.00000e+01 5.00000e+01 5.00000e+01 5.00000e+01 5.00000e+01 5.00000e+01 5.00000e+01 5.00000e+01 5.00000e+01 5.00000e+01 5.00000e+01 5.00000e+01 5.00000e+01 5.00000e+01 5.00000e+01 5.00000e+01 5.00000e+01 5.00000e+01 5.00000e+01 5.00000e+01 5.00000e+01 5.00000e+01 5.00000e+01 5.00000e+01 5.00000e+01 5.00000e+01 5.00000e+01 5.00000e+01 5.00000e+01 5.00000e+01 5.00000e+01 5.00000e+01 5.00000e+01 5.00000e+01 5.00000e+01 5.00000e+01 5.00000e+01 5.00000e+01 5.00000e+01 5.00000e+01 5.00000e+01 5.00000e+01 5.00000e+01 5.00000e+01 5.00000e+01 5.00000e+01 5.00000e+01 5.00000e+01 5.00000e+01 5.00000e+01 5.00000e+01 5.00000e+01 5.00000e+01 5.00000e+01 5.00000e+01 5.00000e+01 5.00000e+01 5.00000e+01 5.00000e+01 5.00000e+01 5.00000e+01 5.00000e+01 5.00000e+01 5.00000e+01 5.00000e+01 5.00000e+01 5.00000e+01 5.00000e+01 5.00000e+01 5.00000e+01 5.00000e+01 5.00000e+01 5.00000e+01 5.00000e+01 5.00000e+01 5.00000e+01 5.00000e+01 5.00000e+01 5.00000e+01 5.00000e+01 5.00000e+01 5.00000e+01 5.00000e+01 5.00000e+01 5.00000e+01 5.00000e+01 5.00000e+01 5.00000e+01 5.00000e+01 5.00000e+01 5.00000e+01 5.00000e+01 5.00000e+01 5.00000e+01
GRID_COORDS_Y 2.50000e+01 2.59091e+01 2.68182e+01 2.77273e+01 2.86364e+01 2.95455e+01 3.04545e+01 3.13636e+01 3.22727e+01 3.31818e+01 3.40909e+01 3.50000e+01 3.59091e+01 3.68182e+01 3.77273e+01 3.86364e+01 3.95455e+01 4.04545e+01 4.13636e+01 4.22727e+01 4.31818e+01 4.40909e+01 4.50000e+01 4.59091e+01 4.68182e+01 4.77273e+01 4.86364e+01 4.95455e+01 5.04545e+01 5.13636e+01 5.22727e+01 5.31818e+01 5.40909e+01 5.50000e+01 5.59091e+01 5.68182e+01 5.77273e+01 5.86364e+01 5.95455e+01 6.04545e+01 6.13636e+01 6.22727e+01 6.31818e+01 6.40909e+01 6.50000e+01 6.59091e+01 6.68182e+01 6.77273e+01 6.86364e+01 6.95455e+01 7.04545e+01 7.13636e+01 7.22727e+01 7.31818e+01 7.40909e+01 7.50000e+01 2.50000e+01 2.59091e+01 2.68182e+01 2.77273e+01 2.86364e+01 2.95455e+01 3.04545e+01 3.13636e+01 3.22727e+01 3.31818e+01 3.40909e+01 3.50000e+01 3.59091e+01 3.68182e+01 3.77273e+01 3.86364e+01 3.95455e+01 4.04545e+01 4.13636e+01 4.22727e+01 4.31818e+01 4.40909e+01 4.50000e+01 4.59091e+01 4.68182e+01 4.77273e+01 4.86364e+01 4.95455e+01 5.04545e+01 5.13636e+01 5.22727e+01 5.31818e+01 5.40909e+01 5.50000e+01 5.59091e+01 5.68182e+01 5.77273e+01 5.86364e+01 5.95455e+01 6.04545e+01 6.13636e+01 6.22727e+01 6.31818e+01 6.40909e+01 6.50000e+01 6.59091e+01 6.68182e+01 6.77273e+01 6.86364e+01 6.95455e+01 7.04545e+01 7.13636e+01 7.22727e+01 7.31818e+01 7.40909e+01 7.50000e+01
GRID_COORDS_Z 7.10543e-15 7.10543e-15 7.10543e-15 7.10543e-15 7.10543e-15 7.10543e-15 7.10543e-15 7.10543e-15 7.10543e-15 7.10543e-15 7.10543e-15 7.10543e-15 7.10543e-15 7.10543e-15 7.10543e-15 7.10543e-15 7.10543e-15 7.10543e-15 7.10543e-15 7.10543e-15 7.10543e-15 7.10543e-15 7.10543e-15 7.10543e-15 7.10543e-15 7.10543e-15 7.10543e-15 7.10543e-15 7.10543e-15 7.10543e-15 7.10543e-15 7.10543e-15 7.10543e-15 7.10543e-15 7.10543e-15 7.10543e-15 7.10543e-15 7.10543e-15 7.10543e-15 7.10543e-15 7.10543e-15 7.10543e-15 7.10543e-15 7.10543e-15 7.10543e-15 7.10543e-15 7.10543e-15 7.10543e-15 7.10543e-15 7.10543e-15 7.10543e-15 7.10543e-15 7.10543e-15 7.10543e-15 7.10543e-15 7.10543e-15 1.00000e+00 1.00000e+00 1.00000e+00 1.00000e+00 1.00000e+00 1.00000e+00 1.00000e+00 1.00000e+00 1.00000e+00 1.00000e+00 1.00000e+00 1.00000e+00 1.00000e+00 1.00000e+00 1.00000e+00 1.00000e+00 1.00000e+00 1.00000e+00 1.00000e+00 1.00000e+00 1.00000e+00 1.00000e+00 1.00000e+00 1.00000e+00 1.00000e+00 1.00000e+00 1.00000e+00 1.00000e+00 1.00000e+00 1.00000e+00 1.00000e+00 1.00000e+00 1.00000e+00 1.00000e+00 1.00000e+00 1.00000e+00 1.00000e+00 1.00000e+00 1.00000e+00 1.00000e+00 1.00000e+00 1.00000e+00 1.00000e+00 1.00000e+00 1.00000e+00 1.00000e+00 1.00000e+00 1.00000e+00 1.00000e+00 1.00000e+00 1.00000e+00 1.00000e+00 1.00000e+00 1.00000e+00 1.00000e+00 1.00000e+00

%                    fracCellID         #rock EDFM    #rock pEDFM    #frac EDFM    #frac pEDFM
FRACCELL                  0               6              0             0             0
%                    rockCellID           CI_rock_EDFM
ROCK_CONN_EDFM         4555               0.00000e+00
ROCK_CONN_EDFM         4556               0.00000e+00
ROCK_CONN_EDFM         4691               2.00000e+00
ROCK_CONN_EDFM         4692               2.00000e+00
ROCK_CONN_EDFM         4827               4.72727e-01
ROCK_CONN_EDFM         4828               4.72727e-01

%                    fracCellID         #rock EDFM    #rock pEDFM    #frac EDFM    #frac pEDFM
FRACCELL                  1               4              0             0             0
%                    rockCellID           CI_rock_EDFM
ROCK_CONN_EDFM         4827               1.52727e+00
ROCK_CONN_EDFM         4828               1.52727e+00
ROCK_CONN_EDFM         4963               9.45455e-01
ROCK_CONN_EDFM         4964               9.45455e-01

%                    fracCellID         #rock EDFM    #rock pEDFM    #frac EDFM    #frac pEDFM
FRACCELL                  2               4              0             0             0
%                    rockCellID           CI_rock_EDFM
ROCK_CONN_EDFM         4963               1.05455e+00
ROCK_CONN_EDFM         4964               1.05455e+00
ROCK_CONN_EDFM         5099               1.41818e+00
ROCK_CONN_EDFM         5100               1.41818e+00

%                    fracCellID         #rock EDFM    #rock pEDFM    #frac EDFM    #frac pEDFM
FRACCELL                  3               4              0             0             0
%                    rockCellID           CI_rock_EDFM
ROCK_CONN_EDFM         5099               5.81818e-01
ROCK_CONN_EDFM         5100               5.81818e-01
ROCK_CONN_EDFM         5235               1.89091e+00
ROCK_CONN_EDFM         5236               1.89091e+00

%                    fracCellID         #rock EDFM    #rock pEDFM    #frac EDFM    #frac pEDFM
FRACCELL                  4               6              0             0             0
%                    rockCellID           CI_rock_EDFM
ROCK_CONN_EDFM         5235               1.09091e-01
ROCK_CONN_EDFM         5236               1.09091e-01
ROCK_CONN_EDFM         5371               2.00000e+00
ROCK_CONN_EDFM         5372               2.00000e+00
ROCK_CONN_EDFM         5507               3.63636e-01
ROCK_CONN_EDFM         5508               3.63636e-01

%                    fracCellID         #rock EDFM    #rock pEDFM    #frac EDFM    #frac pEDFM
FRACCELL                  5               4              0             0             0
%                    rockCellID           CI_rock_EDFM
ROCK_CONN_EDFM         5507               1.63636e+00
ROCK_CONN_EDFM         5508               1.63636e+00
ROCK_CONN_EDFM         5643               8.36364e-01
ROCK_CONN_EDFM         5644               8.36364e-01

%                    fracCellID         #rock EDFM    #rock pEDFM    #frac EDFM    #frac pEDFM
FRACCELL                  6               4              0             0             0
%                    rockCellID           CI_rock_EDFM
ROCK_CONN_EDFM         5643               1.16364e+00
ROCK_CONN_EDFM         5644               1.16364e+00
ROCK_CONN_EDFM         5779               1.30909e+00
ROCK_CONN_EDFM         5780               1.30909e+00

%                    fracCellID         #rock EDFM    #rock pEDFM    #frac EDFM    #frac pEDFM
FRACCELL                  7               4              0             0             0
%                    rockCellID           CI_rock_EDFM
ROCK_CONN_EDFM         5779               6.90909e-01
ROCK_CONN_EDFM         5780               6.90909e-01
ROCK_CONN_EDFM         5915               1.78182e+00
ROCK_CONN_EDFM         5916               1.78182e+00

%                    fracCellID         #rock EDFM    #rock pEDFM    #frac EDFM    #frac pEDFM
FRACCELL                  8               6              0             0             0
%                    rockCellID           CI_rock_EDFM
ROCK_CONN_EDFM         5915               2.18182e-01
ROCK_CONN_EDFM         5916               2.18182e-01
ROCK_CONN_EDFM         6051               2.00000e+00
ROCK_CONN_EDFM         6052               2.00000e+00
ROCK_CONN_EDFM         6187               2.54545e-01
ROCK_CONN_EDFM         6188               2.54545e-01

%                    fracCellID         #rock EDFM    #rock pEDFM    #frac EDFM    #frac pEDFM
FRACCELL                  9               4              0             0             0
%                    rockCellID           CI_rock_EDFM
ROCK_CONN_EDFM         6187               1.74545e+00
ROCK_CONN_EDFM         6188               1.74545e+00
ROCK_CONN_EDFM         6323               7.27273e-01
ROCK_CONN_EDFM         6324               7.27273e-01

%                    fracCellID         #rock EDFM    #rock pEDFM    #frac EDFM    #frac pEDFM
FRACCELL                 10               4              0             0             0
%                    rockCellID           CI_rock_EDFM
ROCK_CONN_EDFM         6323               1.27273e+00
ROCK_CONN_EDFM         6324               1.27273e+00
ROCK_CONN_EDFM         6459               1.20000e+00
ROCK_CONN_EDFM         6460               1.20000e+00

%                    fracCellID         #rock EDFM    #rock pEDFM    #frac EDFM    #frac pEDFM
FRACCELL                 11               4              0             0             0
%                    rockCellID           CI_rock_EDFM
ROCK_CONN_EDFM         6459               8.00000e-01
ROCK_CONN_EDFM         6460               8.00000e-01
ROCK_CONN_EDFM         6595               1.67273e+00
ROCK_CONN_EDFM         6596               1.67273e+00

%                    fracCellID         #rock EDFM    #rock pEDFM    #frac EDFM    #frac pEDFM
FRACCELL                 12               6              0             0             0
%                    rockCellID           CI_rock_EDFM
ROCK_CONN_EDFM         6595               3.27273e-01
ROCK_CONN_EDFM         6596               3.27273e-01
ROCK_CONN_EDFM         6731               3.07692e+00
ROCK_CONN_EDFM         6732               3.07692e+00
ROCK_CONN_EDFM         6867               1.45455e-01
ROCK_CONN_EDFM         6868               1.45455e-01

%                    fracCellID         #rock EDFM    #rock pEDFM    #frac EDFM    #frac pEDFM
FRACCELL                 13               4              0             0             0
%                    rockCellID           CI_rock_EDFM
ROCK_CONN_EDFM         6867               1.85455e+00
ROCK_CONN_EDFM         6868               1.85455e+00
ROCK_CONN_EDFM         7003               6.18182e-01
ROCK_CONN_EDFM         7004               6.18182e-01

%                    fracCellID         #rock EDFM    #rock pEDFM    #frac EDFM    #frac pEDFM
FRACCELL                 14               4              0             0             0
%                    rockCellID           CI_rock_EDFM
ROCK_CONN_EDFM         7003               1.38182e+00
ROCK_CONN_EDFM         7004               1.38182e+00
ROCK_CONN_EDFM         7139               1.09091e+00
ROCK_CONN_EDFM         7140               1.09091e+00

%                    fracCellID         #rock EDFM    #rock pEDFM    #frac EDFM    #frac pEDFM
FRACCELL                 15               4              0             0             0
%                    rockCellID           CI_rock_EDFM
ROCK_CONN_EDFM         7139               9.09091e-01
ROCK_CONN_EDFM         7140               9.09091e-01
ROCK_CONN_EDFM         7275               1.56364e+00
ROCK_CONN_EDFM         7276               1.56364e+00

%                    fracCellID         #rock EDFM    #rock pEDFM    #frac EDFM    #frac pEDFM
FRACCELL                 16               6              0             0             0
%                    rockCellID           CI_rock_EDFM
ROCK_CONN_EDFM         7275               4.36364e-01
ROCK_CONN_EDFM         7276               4.36364e-01
ROCK_CONN_EDFM         7411               3.00000e+00
ROCK_CONN_EDFM         7412               3.00000e+00
ROCK_CONN_EDFM         7547               3.63636e-02
ROCK_CONN_EDFM         7548               3.63636e-02

%                    fracCellID         #rock EDFM    #rock pEDFM    #frac EDFM    #frac pEDFM
FRACCELL                 17               4              0             0             0
%                    rockCellID           CI_rock_EDFM
ROCK_CONN_EDFM         7547               1.96364e+00
ROCK_CONN_EDFM         7548               1.96364e+00
ROCK_CONN_EDFM         7683               5.09091e-01
ROCK_CONN_EDFM         7684               5.09091e-01

%                    fracCellID         #rock EDFM    #rock pEDFM    #frac EDFM    #frac pEDFM
FRACCELL                 18               4              0             0             0
%                    rockCellID           CI_rock_EDFM
ROCK_CONN_EDFM         7683               1.49091e+00
ROCK_CONN_EDFM         7684               1.49091e+00
ROCK_CONN_EDFM         7819               9.81818e-01
ROCK_CONN_EDFM         7820               9.81818e-01

%                    fracCellID         #rock EDFM    #rock pEDFM    #frac EDFM    #frac pEDFM
FRACCELL                 19               4              0             0             0
%                    rockCellID           CI_rock_EDFM
ROCK_CONN_EDFM         7819               1.01818e+00
ROCK_CONN_EDFM         7820               1.01818e+00
ROCK_CONN_EDFM         7955               1.45455e+00
ROCK_CONN_EDFM         7956               1.45455e+00

%                    fracCellID         #rock EDFM    #rock pEDFM    #frac EDFM    #frac pEDFM
FRACCELL                 20               4              0             0             0
%                    rockCellID           CI_rock_EDFM
ROCK_CONN_EDFM         7955               5.45455e-01
ROCK_CONN_EDFM         7956               5.45455e-01
ROCK_CONN_EDFM         8091               1.92727e+00
ROCK_CONN_EDFM         8092               1.92727e+00

%                    fracCellID         #rock EDFM    #rock pEDFM    #frac EDFM    #frac pEDFM
FRACCELL                 21               6              0             0             0
%                    rockCellID           CI_rock_EDFM
ROCK_CONN_EDFM         8091               7.27273e-02
ROCK_CONN_EDFM         8092               7.27273e-02
ROCK_CONN_EDFM         8227               2.84615e+00
ROCK_CONN_EDFM         8228               2.84615e+00
ROCK_CONN_EDFM         8363               4.00000e-01
ROCK_CONN_EDFM         8364               4.00000e-01

%                    fracCellID         #rock EDFM    #rock pEDFM    #frac EDFM    #frac pEDFM
FRACCELL                 22               4              0             0             0
%                    rockCellID           CI_rock_EDFM
ROCK_CONN_EDFM         8363               1.60000e+00
ROCK_CONN_EDFM         8364               1.60000e+00
ROCK_CONN_EDFM         8499               8.72727e-01
ROCK_CONN_EDFM         8500               8.72727e-01

%                    fracCellID         #rock EDFM    #rock pEDFM    #frac EDFM    #frac pEDFM
FRACCELL                 23               4              0             0             0
%                    rockCellID           CI_rock_EDFM
ROCK_CONN_EDFM         8499               1.12727e+00
ROCK_CONN_EDFM         8500               1.12727e+00
ROCK_CONN_EDFM         8635               1.34545e+00
ROCK_CONN_EDFM         8636               1.34545e+00

%                    fracCellID         #rock EDFM    #rock pEDFM    #frac EDFM    #frac pEDFM
FRACCELL                 24               4              0             0             0
%                    rockCellID           CI_rock_EDFM
ROCK_CONN_EDFM         8635               6.54545e-01
ROCK_CONN_EDFM         8636               6.54545e-01
ROCK_CONN_EDFM         8771               1.81818e+00
ROCK_CONN_EDFM         8772               1.81818e+00

%                    fracCellID         #rock EDFM    #rock pEDFM    #frac EDFM    #frac pEDFM
FRACCELL                 25               6              0             0             0
%                    rockCellID           CI_rock_EDFM
ROCK_CONN_EDFM         8771               1.81818e-01
ROCK_CONN_EDFM         8772               1.81818e-01
ROCK_CONN_EDFM         8907               2.00000e+00
ROCK_CONN_EDFM         8908               2.00000e+00
ROCK_CONN_EDFM         9043               2.90909e-01
ROCK_CONN_EDFM         9044               2.90909e-01

%                    fracCellID         #rock EDFM    #rock pEDFM    #frac EDFM    #frac pEDFM
FRACCELL                 26               4              0             0             0
%                    rockCellID           CI_rock_EDFM
ROCK_CONN_EDFM         9043               1.70909e+00
ROCK_CONN_EDFM         9044               1.70909e+00
ROCK_CONN_EDFM         9179               7.63636e-01
ROCK_CONN_EDFM         9180               7.63636e-01

%                    fracCellID         #rock EDFM    #rock pEDFM    #frac EDFM    #frac pEDFM
FRACCELL                 27               4              0             1             0
%                    rockCellID           CI_rock_EDFM
ROCK_CONN_EDFM         9179               1.23636e+00
ROCK_CONN_EDFM         9180               1.23636e+00
ROCK_CONN_EDFM         9315               1.23636e+00
ROCK_CONN_EDFM         9316               1.23636e+00
%                fracID and fracCellID    CI_frac_EDFM
FRAC_CONN_EDFM       0       27           7.70000e+00

%                    fracCellID         #rock EDFM    #rock pEDFM    #frac EDFM    #frac pEDFM
FRACCELL                 28               4              0             0             0
%                    rockCellID           CI_rock_EDFM
ROCK_CONN_EDFM         9315               7.63636e-01
ROCK_CONN_EDFM         9316               7.63636e-01
ROCK_CONN_EDFM         9451               1.70909e+00
ROCK_CONN_EDFM         9452               1.70909e+00

%                    fracCellID         #rock EDFM    #rock pEDFM    #frac EDFM    #frac pEDFM
FRACCELL                 29               6              0             0             0
%                    rockCellID           CI_rock_EDFM
ROCK_CONN_EDFM         9451               2.90909e-01
ROCK_CONN_EDFM         9452               2.90909e-01
ROCK_CONN_EDFM         9587               2.84615e+00
ROCK_CONN_EDFM         9588               2.84615e+00
ROCK_CONN_EDFM         9723               1.81818e-01
ROCK_CONN_EDFM         9724               1.81818e-01

%                    fracCellID         #rock EDFM    #rock pEDFM    #frac EDFM    #frac pEDFM
FRACCELL                 30               4              0             0             0
%                    rockCellID           CI_rock_EDFM
ROCK_CONN_EDFM         9723               1.81818e+00
ROCK_CONN_EDFM         9724               1.81818e+00
ROCK_CONN_EDFM         9859               6.54545e-01
ROCK_CONN_EDFM         9860               6.54545e-01

%                    fracCellID         #rock EDFM    #rock pEDFM    #frac EDFM    #frac pEDFM
FRACCELL                 31               4              0             0             0
%                    rockCellID           CI_rock_EDFM
ROCK_CONN_EDFM         9859               1.34545e+00
ROCK_CONN_EDFM         9860               1.34545e+00
ROCK_CONN_EDFM         9995               1.12727e+00
ROCK_CONN_EDFM         9996               1.12727e+00

%                    fracCellID         #rock EDFM    #rock pEDFM    #frac EDFM    #frac pEDFM
FRACCELL                 32               4              0             0             0
%                    rockCellID           CI_rock_EDFM
ROCK_CONN_EDFM         9995               8.72727e-01
ROCK_CONN_EDFM         9996               8.72727e-01
ROCK_CONN_EDFM        10131               1.60000e+00
ROCK_CONN_EDFM        10132               1.60000e+00

%                    fracCellID         #rock EDFM    #rock pEDFM    #frac EDFM    #frac pEDFM
FRACCELL                 33               6              0             0             0
%                    rockCellID           CI_rock_EDFM
ROCK_CONN_EDFM        10131               4.00000e-01
ROCK_CONN_EDFM        10132               4.00000e-01
ROCK_CONN_EDFM        10267               3.00000e+00
ROCK_CONN_EDFM        10268               3.00000e+00
ROCK_CONN_EDFM        10403               7.27273e-02
ROCK_CONN_EDFM        10404               7.27273e-02

%                    fracCellID         #rock EDFM    #rock pEDFM    #frac EDFM    #frac pEDFM
FRACCELL                 34               4              0             0             0
%                    rockCellID           CI_rock_EDFM
ROCK_CONN_EDFM        10403               1.92727e+00
ROCK_CONN_EDFM        10404               1.92727e+00
ROCK_CONN_EDFM        10539               5.45455e-01
ROCK_CONN_EDFM        10540               5.45455e-01

%                    fracCellID         #rock EDFM    #rock pEDFM    #frac EDFM    #frac pEDFM
FRACCELL                 35               4              0             0             0
%                    rockCellID           CI_rock_EDFM
ROCK_CONN_EDFM        10539               1.45455e+00
ROCK_CONN_EDFM        10540               1.45455e+00
ROCK_CONN_EDFM        10675               1.01818e+00
ROCK_CONN_EDFM        10676               1.01818e+00

%                    fracCellID         #rock EDFM    #rock pEDFM    #frac EDFM    #frac pEDFM
FRACCELL                 36               4              0             0             0
%                    rockCellID           CI_rock_EDFM
ROCK_CONN_EDFM        10675               9.81818e-01
ROCK_CONN_EDFM        10676               9.81818e-01
ROCK_CONN_EDFM        10811               1.49091e+00
ROCK_CONN_EDFM        10812               1.49091e+00

%                    fracCellID         #rock EDFM    #rock pEDFM    #frac EDFM    #frac pEDFM
FRACCELL                 37               4              0             0             0
%                    rockCellID           CI_rock_EDFM
ROCK_CONN_EDFM        10811               5.09091e-01
ROCK_CONN_EDFM        10812               5.09091e-01
ROCK_CONN_EDFM        10947               1.96364e+00
ROCK_CONN_EDFM        10948               1.96364e+00

%                    fracCellID         #rock EDFM    #rock pEDFM    #frac EDFM    #frac pEDFM
FRACCELL                 38               6              0             0             0
%                    rockCellID           CI_rock_EDFM
ROCK_CONN_EDFM        10947               3.63636e-02
ROCK_CONN_EDFM        10948               3.63636e-02
ROCK_CONN_EDFM        11083               2.92308e+00
ROCK_CONN_EDFM        11084               2.92308e+00
ROCK_CONN_EDFM        11219               4.36364e-01
ROCK_CONN_EDFM        11220               4.36364e-01

%                    fracCellID         #rock EDFM    #rock pEDFM    #frac EDFM    #frac pEDFM
FRACCELL                 39               4              0             0             0
%                    rockCellID           CI_rock_EDFM
ROCK_CONN_EDFM        11219               1.56364e+00
ROCK_CONN_EDFM        11220               1.56364e+00
ROCK_CONN_EDFM        11355               9.09091e-01
ROCK_CONN_EDFM        11356               9.09091e-01

%                    fracCellID         #rock EDFM    #rock pEDFM    #frac EDFM    #frac pEDFM
FRACCELL                 40               4              0             0             0
%                    rockCellID           CI_rock_EDFM
ROCK_CONN_EDFM        11355               1.09091e+00
ROCK_CONN_EDFM        11356               1.09091e+00
ROCK_CONN_EDFM        11491               1.38182e+00
ROCK_CONN_EDFM        11492               1.38182e+00

%                    fracCellID         #rock EDFM    #rock pEDFM    #frac EDFM    #frac pEDFM
FRACCELL                 41               4              0             0             0
%                    rockCellID           CI_rock_EDFM
ROCK_CONN_EDFM        11491               6.18182e-01
ROCK_CONN_EDFM        11492               6.18182e-01
ROCK_CONN_EDFM        11627               1.85455e+00
ROCK_CONN_EDFM        11628               1.85455e+00

%                    fracCellID         #rock EDFM    #rock pEDFM    #frac EDFM    #frac pEDFM
FRACCELL                 42               6              0             0             0
%                    rockCellID           CI_rock_EDFM
ROCK_CONN_EDFM        11627               1.45455e-01
ROCK_CONN_EDFM        11628               1.45455e-01
ROCK_CONN_EDFM        11763               2.00000e+00
ROCK_CONN_EDFM        11764               2.00000e+00
ROCK_CONN_EDFM        11899               3.27273e-01
ROCK_CONN_EDFM        11900               3.27273e-01

%                    fracCellID         #rock EDFM    #rock pEDFM    #frac EDFM    #frac pEDFM
FRACCELL                 43               4              0             0             0
%                    rockCellID           CI_rock_EDFM
ROCK_CONN_EDFM        11899               1.67273e+00
ROCK_CONN_EDFM        11900               1.67273e+00
ROCK_CONN_EDFM        12035               8.00000e-01
ROCK_CONN_EDFM        12036               8.00000e-01

%                    fracCellID         #rock EDFM    #rock pEDFM    #frac EDFM    #frac pEDFM
FRACCELL                 44               4              0             0             0
%                    rockCellID           CI_rock_EDFM
ROCK_CONN_EDFM        12035               1.20000e+00
ROCK_CONN_EDFM        12036               1.20000e+00
ROCK_CONN_EDFM        12171               1.27273e+00
ROCK_CONN_EDFM        12172               1.27273e+00

%                    fracCellID         #rock EDFM    #rock pEDFM    #frac EDFM    #frac pEDFM
FRACCELL                 45               4              0             0             0
%                    rockCellID           CI_rock_EDFM
ROCK_CONN_EDFM        12171               7.27273e-01
ROCK_CONN_EDFM        12172               7.27273e-01
ROCK_CONN_EDFM        12307               1.74545e+00
ROCK_CONN_EDFM        12308               1.74545e+00

%                    fracCellID         #rock EDFM    #rock pEDFM    #frac EDFM    #frac pEDFM
FRACCELL                 46               6              0             0             0
%                    rockCellID           CI_rock_EDFM
ROCK_CONN_EDFM        12307               2.54545e-01
ROCK_CONN_EDFM        12308               2.54545e-01
ROCK_CONN_EDFM        12443               2.61538e+00
ROCK_CONN_EDFM        12444               2.61538e+00
ROCK_CONN_EDFM        12579               2.18182e-01
ROCK_CONN_EDFM        12580               2.18182e-01

%                    fracCellID         #rock EDFM    #rock pEDFM    #frac EDFM    #frac pEDFM
FRACCELL                 47               4              0             0             0
%                    rockCellID           CI_rock_EDFM
ROCK_CONN_EDFM        12579               1.78182e+00
ROCK_CONN_EDFM        12580               1.78182e+00
ROCK_CONN_EDFM        12715               6.90909e-01
ROCK_CONN_EDFM        12716               6.90909e-01

%                    fracCellID         #rock EDFM    #rock pEDFM    #frac EDFM    #frac pEDFM
FRACCELL                 48               4              0             0             0
%                    rockCellID           CI_rock_EDFM
ROCK_CONN_EDFM        12715               1.30909e+00
ROCK_CONN_EDFM        12716               1.30909e+00
ROCK_CONN_EDFM        12851               1.16364e+00
ROCK_CONN_EDFM        12852               1.16364e+00

%                    fracCellID         #rock EDFM    #rock pEDFM    #frac EDFM    #frac pEDFM
FRACCELL                 49               4              0             0             0
%                    rockCellID           CI_rock_EDFM
ROCK_CONN_EDFM        12851               8.36364e-01
ROCK_CONN_EDFM        12852               8.36364e-01
ROCK_CONN_EDFM        12987               1.63636e+00
ROCK_CONN_EDFM        12988               1.63636e+00

%                    fracCellID         #rock EDFM    #rock pEDFM    #frac EDFM    #frac pEDFM
FRACCELL                 50               6              0             0             0
%                    rockCellID           CI_rock_EDFM
ROCK_CONN_EDFM        12987               3.63636e-01
ROCK_CONN_EDFM        12988               3.63636e-01
ROCK_CONN_EDFM        13123               3.30769e+00
ROCK_CONN_EDFM        13124               3.30769e+00
ROCK_CONN_EDFM        13259               1.09091e-01
ROCK_CONN_EDFM        13260               1.09091e-01

%                    fracCellID         #rock EDFM    #rock pEDFM    #frac EDFM    #frac pEDFM
FRACCELL                 51               4              0             0             0
%                    rockCellID           CI_rock_EDFM
ROCK_CONN_EDFM        13259               1.89091e+00
ROCK_CONN_EDFM        13260               1.89091e+00
ROCK_CONN_EDFM        13395               5.81818e-01
ROCK_CONN_EDFM        13396               5.81818e-01

%                    fracCellID         #rock EDFM    #rock pEDFM    #frac EDFM    #frac pEDFM
FRACCELL                 52               4              0             0             0
%                    rockCellID           CI_rock_EDFM
ROCK_CONN_EDFM        13395               1.41818e+00
ROCK_CONN_EDFM        13396               1.41818e+00
ROCK_CONN_EDFM        13531               1.05455e+00
ROCK_CONN_EDFM        13532               1.05455e+00

%                    fracCellID         #rock EDFM    #rock pEDFM    #frac EDFM    #frac pEDFM
FRACCELL                 53               4              0             0             0
%                    rockCellID           CI_rock_EDFM
ROCK_CONN_EDFM        13531               9.45455e-01
ROCK_CONN_EDFM        13532               9.45455e-01
ROCK_CONN_EDFM        13667               1.52727e+00
ROCK_CONN_EDFM        13668               1.52727e+00

%                    fracCellID         #rock EDFM    #rock pEDFM    #frac EDFM    #frac pEDFM
FRACCELL                 54               6              0             0             0
%                    rockCellID           CI_rock_EDFM
ROCK_CONN_EDFM        13667               4.72727e-01
ROCK_CONN_EDFM        13668               4.72727e-01
ROCK_CONN_EDFM        13803               2.00000e+00
ROCK_CONN_EDFM        13804               2.00000e+00
ROCK_CONN_EDFM        13939               0.00000e+00
ROCK_CONN_EDFM        13940               0.00000e+00

/


